<svg width="116" height="116" viewBox="0 0 116 116" fill="none" xmlns="http://www.w3.org/2000/svg">
<g filter="url(#filter0_d)">
<circle cx="58" cy="54" r="54" fill="white"/>
</g>
<circle cx="58" cy="54" r="44" fill="url(#paint0_linear)"/>
<path d="M83.6893 49.895C83.6478 49.6695 83.529 49.4652 83.3528 49.3171C81.7032 47.9304 81.4247 46.4014 81.2009 45.1729L81.1716 45.0128C81.0943 44.5935 80.7555 44.2704 80.3307 44.211C80.1841 44.1905 80.0289 44.18 79.8694 44.18C78.9214 44.18 77.5859 44.577 76.7391 45.4636C76.5947 45.6149 76.5019 45.8078 76.4742 46.0145C76.403 46.5465 76.3664 47.0333 76.3341 47.4628C76.2121 49.0813 76.1042 49.253 75.608 49.409C75.2971 49.5068 75.054 49.7496 74.9573 50.059C74.49 51.5539 73.87 52.9844 73.1195 54.3341C72.7488 53.6309 72.3393 52.9984 71.958 52.4098C71.0257 50.9704 70.2892 49.8332 70.5408 48.424C71.3562 43.8563 70.9423 40.4156 69.3103 38.1971C68.4015 36.9617 67.1068 36.1194 65.5333 35.7259C65.8465 33.2976 67.5447 32.1967 68.4847 31.9464C69.0161 31.8049 69.3314 31.2621 69.189 30.734C69.0466 30.206 68.5003 29.8923 67.9691 30.0341C66.0282 30.5509 63.955 32.4481 63.5591 35.4785C61.9693 35.474 60.5255 35.9565 59.3373 36.8998C57.1662 38.6237 55.8545 41.827 55.4384 46.4208C55.3132 47.8031 54.4133 48.6097 53.1677 49.7257C52.151 50.6368 51.0185 51.654 50.1112 53.1917C48.9811 52.7344 47.7689 52.4377 46.5031 52.3303C46.8618 49.999 48.5119 48.9345 49.4337 48.6891C49.9651 48.5477 50.2804 48.0049 50.138 47.4769C49.9956 46.9488 49.4493 46.6352 48.9181 46.7769C48.4175 46.9102 47.9084 47.1363 47.4213 47.4489C47.1946 46.3374 46.6464 45.2949 45.8162 44.4701C44.704 43.3648 43.2251 42.7561 41.6521 42.7561C41.1372 42.7561 40.6244 42.8229 40.1279 42.9546C39.7835 43.046 39.5145 43.3133 39.4225 43.6555C38.8813 45.6695 39.4656 47.8355 40.9474 49.3083C41.9785 50.3329 43.3251 50.9298 44.7695 51.0116C44.6435 51.4212 44.5499 51.8572 44.4955 52.3194C38.0758 52.7987 33 58.1424 33 64.6422C33 71.4563 38.5786 77 45.4355 77C47.9839 77 50.4114 76.2473 52.4896 74.8195C52.8169 74.9623 53.1453 75.0997 53.4752 75.2289C56.4731 76.404 59.5028 76.9999 62.48 76.9999C67.2688 76.9999 71.7134 75.445 75.3332 72.5033C79.1167 69.4285 81.9051 64.8788 83.3969 59.3461C83.8837 57.5415 84.3131 53.2897 83.6893 49.895ZM54.502 51.1961C55.8418 49.9954 57.2273 48.7538 57.4226 46.5984C57.7881 42.5632 58.8506 39.8205 60.581 38.4467C61.6081 37.6311 62.8778 37.3166 64.355 37.5128C65.8138 37.7064 66.94 38.3297 67.7021 39.3657C69.001 41.1314 69.2962 44.0627 68.5792 48.0782C68.191 50.252 69.2545 51.8937 70.2828 53.4814C70.8592 54.3712 71.4524 55.2887 71.8559 56.3566C68.4987 61.1742 63.4046 64.6875 57.7993 65.9741C57.8471 65.5324 57.8714 65.0874 57.8714 64.6422C57.8714 60.177 55.4757 56.2575 51.8947 54.0857C52.64 52.8667 53.5837 52.019 54.502 51.1961ZM42.3559 47.9083C41.5191 47.0767 41.1149 45.9105 41.237 44.7575C41.3747 44.7431 41.513 44.7356 41.6519 44.7356C42.6927 44.7356 43.6714 45.1384 44.4073 45.8697C45.2442 46.7014 45.6485 47.8677 45.5263 49.0205C45.3887 49.035 45.2503 49.0423 45.1117 49.0423H45.1115C44.0704 49.0424 43.0918 48.6396 42.3559 47.9083ZM45.4355 75.0203C39.677 75.0203 34.9922 70.3648 34.9922 64.6422C34.9922 58.9196 39.677 54.2641 45.4355 54.2641C51.1942 54.2641 55.8791 58.9196 55.8791 64.6422C55.8791 65.2128 55.8322 65.7823 55.7394 66.3427C55.0987 66.4248 54.4535 66.477 53.8053 66.499C53.9418 65.8919 54.0131 65.2716 54.0131 64.6422C54.0131 63.5274 53.7973 62.4392 53.3716 61.4078C53.1629 60.9022 52.5813 60.6601 52.072 60.8677C51.5631 61.0751 51.3197 61.6533 51.5285 62.1591C51.8553 62.9509 52.0209 63.7863 52.0209 64.6422C52.0209 65.2646 51.9322 65.8761 51.7586 66.4681C50.333 66.3769 48.9053 66.1428 47.4987 65.7683C47.2122 65.6919 46.9062 65.7466 46.6642 65.9172C45.7789 66.5418 44.8866 67.3275 44.3575 68.8339C44.2211 69.2221 44.3404 69.6537 44.6573 69.9182C46.4871 71.4456 48.3989 72.7404 50.3682 73.7916C48.8608 74.5984 47.1824 75.0203 45.4355 75.0203ZM81.4726 58.8338C78.7397 68.9693 71.6397 75.0203 62.4801 75.0203C57.1329 75.0203 51.4885 72.8417 46.5135 68.8714C46.7772 68.401 47.1032 68.0772 47.4535 67.8008C49.324 68.2594 51.2261 68.4917 53.115 68.4917C58.461 68.4917 63.6157 66.6813 68.0218 63.2563C70.2619 61.515 72.2034 59.4168 73.7586 57.0903C73.7771 57.0653 73.7945 57.0396 73.8106 57.0131C75.0383 55.1621 76.0216 53.1679 76.7151 51.0941C78.1111 50.3961 78.2176 48.9821 78.3209 47.6106C78.3445 47.2971 78.3687 46.9756 78.4057 46.6364C78.6706 46.4457 79.0218 46.2948 79.3738 46.2172C79.6392 47.4758 80.1554 49.0913 81.7865 50.5831C82.248 53.4995 81.9129 57.2008 81.4726 58.8338Z" fill="white"/>
<path d="M65.1247 39.5498C64.6177 39.3388 64.0337 39.5758 63.8209 40.08C63.6082 40.5841 63.8469 41.1642 64.3543 41.3756C65.079 41.6775 65.4791 43.8504 64.8418 47.4191C64.7457 47.9574 65.1069 48.4712 65.6487 48.5667C65.7075 48.5771 65.7661 48.5822 65.8239 48.5822C66.2977 48.5822 66.7179 48.2448 66.8035 47.7651C67.3735 44.5738 67.5448 40.5581 65.1247 39.5498Z" fill="white"/>
<path d="M71.7083 67.8819C71.3783 67.4445 70.7529 67.3567 70.3128 67.6848C70.3124 67.685 70.3081 67.6882 70.3078 67.6884C69.8642 68.0112 69.7696 68.6288 70.0941 69.0699C70.2888 69.3346 70.5918 69.4747 70.8989 69.4747C71.1035 69.4747 71.31 69.4125 71.4875 69.2836L71.5103 69.2669C71.9504 68.9389 72.0384 68.3193 71.7083 67.8819Z" fill="white"/>
<path d="M69.4228 69.4823C69.1721 68.9957 68.5721 68.803 68.0823 69.0519C64.673 70.785 61.7965 70.7164 61.7541 70.7145C61.2066 70.6956 60.744 71.1196 60.7225 71.6651C60.7009 72.2113 61.1291 72.6714 61.6788 72.6928C61.694 72.6934 61.7476 72.6952 61.8366 72.6952C62.5485 72.6952 65.5156 72.5803 68.9895 70.8143C69.4793 70.5655 69.6733 69.969 69.4228 69.4823Z" fill="white"/>
<path d="M51.5311 58.6457L51.4984 58.6131C51.1084 58.2277 50.4778 58.2292 50.0897 58.6168C49.7017 59.0045 49.7034 59.6312 50.0935 60.0168L50.1149 60.0381C50.3097 60.2339 50.5663 60.3318 50.823 60.3318C51.0761 60.3318 51.3294 60.2364 51.5236 60.0456C51.9146 59.6612 51.918 59.0343 51.5311 58.6457Z" fill="white"/>
<defs>
<filter id="filter0_d" x="0" y="0" width="116" height="116" filterUnits="userSpaceOnUse" color-interpolation-filters="sRGB">
<feFlood flood-opacity="0" result="BackgroundImageFix"/>
<feColorMatrix in="SourceAlpha" type="matrix" values="0 0 0 0 0 0 0 0 0 0 0 0 0 0 0 0 0 0 127 0"/>
<feOffset dy="4"/>
<feGaussianBlur stdDeviation="2"/>
<feColorMatrix type="matrix" values="0 0 0 0 0 0 0 0 0 0 0 0 0 0 0 0 0 0 0.05 0"/>
<feBlend mode="normal" in2="BackgroundImageFix" result="effect1_dropShadow"/>
<feBlend mode="normal" in="SourceGraphic" in2="effect1_dropShadow" result="shape"/>
</filter>
<linearGradient id="paint0_linear" x1="58" y1="10" x2="58" y2="98" gradientUnits="userSpaceOnUse">
<stop stop-color="#FAC859"/>
<stop offset="1" stop-color="#F5A900"/>
</linearGradient>
</defs>
</svg>
