<svg width="116" height="116" viewBox="0 0 116 116" fill="none" xmlns="http://www.w3.org/2000/svg">
<g filter="url(#filter0_d)">
<circle cx="58" cy="54" r="54" fill="white"/>
</g>
<circle cx="58" cy="54" r="44" fill="url(#paint0_linear)"/>
<path d="M60.4319 55.8264C59.8349 54.9419 59.308 54.1282 58.8163 53.3852C58.7461 53.279 58.6407 53.1729 58.5354 53.1021C58.1139 52.8191 57.5519 52.9606 57.271 53.3852C56.8144 54.1282 56.2875 54.9065 55.6554 55.8264C52.8807 59.9304 48.7363 66.1218 48.7363 69.6598C48.7363 72.2425 49.79 74.5775 51.4758 76.2757C53.1617 77.9386 55.4797 78.9999 58.0436 78.9999C60.6075 78.9999 62.9256 77.9386 64.6115 76.2403C66.2973 74.5421 67.351 72.2071 67.351 69.6244C67.351 66.0864 63.2066 59.9304 60.4319 55.8264ZM63.3471 74.9667C61.9773 76.3465 60.1158 77.1602 58.0436 77.1602C55.9715 77.1602 54.11 76.3111 52.7402 74.9667C51.3705 73.5869 50.5627 71.7118 50.5627 69.6244C50.5627 66.6525 54.5315 60.7441 57.1656 56.817C57.4817 56.3571 57.7627 55.8971 58.0436 55.508C58.3246 55.8971 58.6056 56.3571 58.9217 56.817C61.5558 60.7795 65.5246 66.6525 65.5246 69.6244C65.5246 71.7118 64.6817 73.5869 63.3471 74.9667Z" fill="white"/>
<path d="M63.4878 68.9877C62.9961 68.9523 62.5746 69.3415 62.5395 69.8368C62.5044 70.6152 62.2585 71.3581 61.8722 71.995C61.4858 72.6318 60.9239 73.1979 60.2566 73.5517C59.8351 73.7993 59.6595 74.3654 59.9053 74.7899C60.1863 75.2853 60.7483 75.4268 61.1697 75.1791C62.118 74.6484 62.8907 73.8701 63.4175 72.9856C63.9795 72.1011 64.2956 71.0397 64.3307 69.943C64.3658 69.4476 63.9795 69.0231 63.4878 68.9877Z" fill="white"/>
<path fill-rule="evenodd" clip-rule="evenodd" d="M33.6341 41.4569H82.3659C82.9963 41.4569 83.5073 41.9717 83.5073 42.6068V66.2226C83.5073 66.8576 82.9963 67.3724 82.3659 67.3724H68.7318C68.8382 67.8626 68.9163 68.3645 68.9641 68.8761H82.3659C83.8207 68.8761 85 67.6881 85 66.2226V42.6068C85 41.1413 83.8207 39.9533 82.3659 39.9533H33.6341C32.1793 39.9533 31 41.1413 31 42.6068V66.2226C31 67.6881 32.1793 68.8761 33.6341 68.8761H47.1237C47.1715 68.3645 47.2496 67.8626 47.356 67.3724H33.6341C33.0037 67.3724 32.4927 66.8576 32.4927 66.2226V42.6068C32.4927 41.9717 33.0037 41.4569 33.6341 41.4569Z" fill="white"/>
<path fill-rule="evenodd" clip-rule="evenodd" d="M42.0027 46.6473C40.9539 47.2558 39.7224 47.9579 38.0247 47.9579C37.6368 47.9579 37.3223 47.6411 37.3223 47.2503C37.3223 46.8595 37.6368 46.5427 38.0247 46.5427C39.3124 46.5427 40.2541 46.0286 41.3016 45.4209C41.3424 45.3973 41.3834 45.3734 41.4247 45.3494C42.4168 44.7723 43.5548 44.1104 45.0491 44.1104C46.7179 44.1104 47.8508 44.8079 48.8283 45.4098L48.8617 45.4303C49.8522 46.0401 50.6882 46.5427 51.9418 46.5427C53.1903 46.5427 54.0052 46.0425 54.9155 45.4421C54.9548 45.4162 54.9944 45.39 55.0343 45.3636C55.9061 44.7865 56.9276 44.1104 58.3954 44.1104C59.8903 44.1104 61.2354 44.8112 62.3568 45.4086C62.4088 45.4364 62.4604 45.4639 62.5115 45.4912C63.0337 45.7698 63.508 46.023 63.9727 46.2161C64.4791 46.4265 64.923 46.5427 65.332 46.5427C66.1708 46.5427 66.9449 46.0698 67.991 45.4294C68.9654 44.8329 70.1571 44.1103 71.6101 44.1104C72.2944 44.1104 72.9081 44.3222 73.4621 44.5921C73.8775 44.7945 74.2991 45.0512 74.7001 45.2952C74.8196 45.368 74.9373 45.4396 75.0524 45.5084C76.0929 46.1297 77.12 46.639 78.4534 46.5444C78.8404 46.517 79.1762 46.8107 79.2035 47.2006C79.2307 47.5904 78.9391 47.9287 78.5521 47.9561C76.7685 48.0827 75.4248 47.3759 74.336 46.7258C74.1952 46.6417 74.0612 46.5602 73.9321 46.4816C73.5447 46.246 73.2013 46.0371 72.8504 45.8661C72.3974 45.6454 72.0014 45.5255 71.61 45.5255C70.6045 45.5255 69.7328 46.0191 68.7206 46.6388C68.6709 46.6692 68.6206 46.7001 68.5698 46.7313C67.6596 47.291 66.5751 47.9579 65.332 47.9579C64.6654 47.9579 64.0283 47.77 63.437 47.5244C62.9059 47.3037 62.3707 47.0178 61.8609 46.7455C61.807 46.7167 61.7533 46.688 61.7 46.6596C60.5384 46.0408 59.4908 45.5255 58.3954 45.5255C57.3534 45.5255 56.6488 45.9903 55.7205 46.6027L55.6851 46.6261C54.7515 47.2419 53.6347 47.9579 51.9418 47.9579C50.2729 47.9579 49.1401 47.2603 48.1626 46.6585L48.1291 46.6379C47.1387 46.0281 46.3026 45.5255 45.0491 45.5255C43.9362 45.5255 43.0911 46.0158 42.0275 46.6329L42.0027 46.6473Z" fill="white"/>
<path fill-rule="evenodd" clip-rule="evenodd" d="M31 35.7076C31 35.3168 31.3145 35 31.7024 35L84.2976 35C84.6855 35 85 35.3168 85 35.7076C85 36.0984 84.6855 36.4152 84.2976 36.4152L31.7024 36.4152C31.3145 36.4152 31 36.0984 31 35.7076Z" fill="white"/>
<defs>
<filter id="filter0_d" x="0" y="0" width="116" height="116" filterUnits="userSpaceOnUse" color-interpolation-filters="sRGB">
<feFlood flood-opacity="0" result="BackgroundImageFix"/>
<feColorMatrix in="SourceAlpha" type="matrix" values="0 0 0 0 0 0 0 0 0 0 0 0 0 0 0 0 0 0 127 0"/>
<feOffset dy="4"/>
<feGaussianBlur stdDeviation="2"/>
<feColorMatrix type="matrix" values="0 0 0 0 0 0 0 0 0 0 0 0 0 0 0 0 0 0 0.05 0"/>
<feBlend mode="normal" in2="BackgroundImageFix" result="effect1_dropShadow"/>
<feBlend mode="normal" in="SourceGraphic" in2="effect1_dropShadow" result="shape"/>
</filter>
<linearGradient id="paint0_linear" x1="58" y1="10" x2="58" y2="98" gradientUnits="userSpaceOnUse">
<stop stop-color="#CFDA51"/>
<stop offset="1" stop-color="#CDDD15"/>
</linearGradient>
</defs>
</svg>
