<svg width="116" height="116" viewBox="0 0 116 116" fill="none" xmlns="http://www.w3.org/2000/svg">
<g filter="url(#filter0_d)">
<circle cx="58" cy="54" r="54" fill="white"/>
</g>
<circle cx="58" cy="54" r="44" fill="url(#paint0_linear)"/>
<path d="M70.9984 38.2658C70.9976 38.253 70.9976 38.2403 70.9965 38.2275C70.9944 38.2026 70.9909 38.1779 70.9872 38.1534C70.9856 38.1453 70.985 38.1372 70.9834 38.1293C70.9767 38.0943 70.9679 38.0598 70.9575 38.0265L68.8361 31.1957V26.9158C68.8361 26.41 68.4317 26 67.9334 26H48.0725C47.5739 26 47.1698 26.41 47.1698 26.9158V31.1683L45.0417 38.0267C45.0313 38.0598 45.0233 38.0938 45.0166 38.1285C45.015 38.1372 45.0142 38.1458 45.0128 38.1545C45.0088 38.1784 45.0056 38.2026 45.0037 38.227C45.0027 38.24 45.0024 38.253 45.0019 38.2661C45.0013 38.2785 45 38.2907 45 38.3035V60.8377V73.479V81.0842C45 81.59 45.4042 82 45.9027 82H70.0973C70.5956 82 71 81.59 71 81.0842V73.479V60.8377V38.3035C71 38.2907 70.9987 38.2783 70.9984 38.2658ZM48.9753 27.8316H67.0306V30.3933H61.1758C60.4413 29.7375 59.3013 29.3231 57.9989 29.3231C56.6968 29.3231 55.5579 29.7375 54.8237 30.3933H48.9753V27.8316ZM57.9992 33.2012C56.6974 33.2012 55.8225 32.6235 55.7687 32.2167V32.138C55.8222 31.7318 56.6971 31.1547 57.9992 31.1547C59.0073 31.1547 59.7608 31.5004 60.0754 31.845C60.0962 31.8743 60.1187 31.902 60.1428 31.9286C60.204 32.0151 60.2367 32.1001 60.2367 32.1774C60.2367 32.5849 59.3443 33.2012 57.9992 33.2012ZM60.2265 34.5728C60.1262 34.9766 59.2625 35.5198 57.9992 35.5198C56.7383 35.5198 55.8778 34.9779 55.7762 34.5742C56.4101 34.8648 57.1716 35.0325 57.9992 35.0325C58.8286 35.0325 59.5918 34.864 60.2265 34.5728ZM48.7351 32.2249H53.96C53.9608 32.2588 53.9611 32.2927 53.9635 32.3264V34.3962C53.9605 34.426 53.9584 34.4597 53.9584 34.4963C53.9584 36.0972 55.7334 37.3516 57.9995 37.3516C60.2666 37.3516 62.0424 36.0975 62.0424 34.4963V32.2249H67.2636L68.8669 37.3877H47.1331L48.7351 32.2249ZM69.1943 80.1679H46.8052V74.3945H69.1943V80.1679ZM69.1945 72.563H46.8052V61.7532H62.8507C63.349 61.7532 63.7535 61.3432 63.7535 60.8374C63.7535 60.3319 63.349 59.9216 62.8507 59.9216H46.8052V39.2193H69.1943V59.9219H67.9334C67.4348 59.9219 67.0306 60.3322 67.0306 60.8377C67.0309 61.3435 67.4348 61.7535 67.9336 61.7535H69.1945V72.563Z" fill="white"/>
<defs>
<filter id="filter0_d" x="0" y="0" width="116" height="116" filterUnits="userSpaceOnUse" color-interpolation-filters="sRGB">
<feFlood flood-opacity="0" result="BackgroundImageFix"/>
<feColorMatrix in="SourceAlpha" type="matrix" values="0 0 0 0 0 0 0 0 0 0 0 0 0 0 0 0 0 0 127 0"/>
<feOffset dy="4"/>
<feGaussianBlur stdDeviation="2"/>
<feColorMatrix type="matrix" values="0 0 0 0 0 0 0 0 0 0 0 0 0 0 0 0 0 0 0.05 0"/>
<feBlend mode="normal" in2="BackgroundImageFix" result="effect1_dropShadow"/>
<feBlend mode="normal" in="SourceGraphic" in2="effect1_dropShadow" result="shape"/>
</filter>
<linearGradient id="paint0_linear" x1="58" y1="10" x2="58" y2="98" gradientUnits="userSpaceOnUse">
<stop stop-color="#64B04B"/>
<stop offset="1" stop-color="#227A05"/>
</linearGradient>
</defs>
</svg>
