<svg width="24" height="24" viewBox="0 0 24 24" fill="none" xmlns="http://www.w3.org/2000/svg">
<g clip-path="url(#clip0)">
<path d="M19.8041 1.54437L13.6416 6.02853C12.9562 6.53694 12.0314 6.54817 11.3161 6.09023L4.30371 1.42769C2.50714 0.236382 0.328434 2.28213 1.35802 4.2064L10.5341 21.8866C11.3424 23.3837 13.4869 23.3337 14.2139 21.7945L22.8637 4.16929C23.7976 2.20668 21.5512 0.275451 19.8041 1.54437Z" fill="#E7E9E6"/>
</g>
<defs>
<clipPath id="clip0">
<rect width="24" height="24" fill="white" transform="translate(24) rotate(90)"/>
</clipPath>
</defs>
</svg>
